<?xml version="1.0" encoding="utf-8"?>
<!-- Generator: Adobe Illustrator 18.1.1, SVG Export Plug-In . SVG Version: 6.00 Build 0)  -->
<!DOCTYPE svg PUBLIC "-//W3C//DTD SVG 1.1//EN" "http://www.w3.org/Graphics/SVG/1.1/DTD/svg11.dtd">
<svg version="1.1" id="Layer_1" xmlns="http://www.w3.org/2000/svg" xmlns:xlink="http://www.w3.org/1999/xlink" x="0px" y="0px"
	 viewBox="0 0 96 95" enable-background="new 0 0 96 95" xml:space="preserve" preserveAspectRatio="xMinYMin">
<g>
	<rect y="0" fill="#E52D91" width="96" height="95"/>
	<path fill="#FFFFFF" d="M83,33.8c-3.1,0-5.1,2.6-5.1,5.2c0,4.5,3.7,5.8,5.6,6.6c0.4,0.2,0.5,0.5,0.4,1.1c-0.3,1.5-1.9,5-3.2,7.2
		c-2.5-4.8-4.4-10.9-5.5-15.7c-0.6-2.8-1.9-4.4-4.6-4.4c-1.9,0-3.3,0.9-3.9,2.1c-0.8-1.5-2.2-2.1-3.5-2.1c-2.2,0-4.2,1.5-5.5,3.6
		c-0.5-2.1-2-3.3-6.7-3.3c-0.7,0-1.7,0.1-2.2,0.2v4.7c-1.3-3.4-4.7-5.1-8.5-5.1c-4.2,0-8,2.2-10.2,5.6v0c0-3.8-2.5-5.5-4.9-5.5
		C22,33.8,20,36.4,20,39c0,4.5,3.6,5.8,5.4,6.6c0.4,0.2,0.6,0.5,0.4,1.1c-0.6,1.7-2.1,5.1-3.3,7.2c-2.1-3.8-4.4-10.9-5.5-15.7
		c-0.6-2.8-2.1-4.4-4.6-4.4c-3,0-4.6,2-4.6,4.5c0,3.2,3.6,13.2,5.7,17.4c1,2,2.6,3.6,6.5,3.6c0.8,0,1.4,0,2-0.2
		c0.9-2,3.9-7.6,6-12.6c0.1,8.4,6.4,12.9,12,12.9c3.6,0,6.7-1.6,8.8-4.4c0.5,2.3,2.2,4.2,6.8,4.2c0.7,0,1.5-0.1,2.2-0.2v-18
		c0-1.7,0.9-2.2,1.4-2.2c-0.2,3.1,1.5,5.2,3.8,5.2c1.4,0,2.8-0.7,3.6-2.2c1.1,4.3,3.1,10.6,3.9,12.1c0.8,1.8,2.1,5.2,7.4,4.9
		c-0.7,1.3-1.9,2.9-2.9,3.8c-0.4,0.3-0.8,0.6-1.1,0c-0.9-2.3-2.6-4.2-5.4-4.2c-3,0-4.7,2.2-4.7,4.4c0,2.7,2.2,5,5.5,5
		c4.2,0,8.2-4.2,12.7-12.9c3.7-7.2,5.8-12.2,5.8-15.6C87.9,35.6,85.4,33.8,83,33.8z M35.9,43.6c0-4.8,1.7-7.3,3.6-7.3
		c1.3,0,2.4,0.9,2.4,3.7c0,3-1.5,6.3-5.5,7.2C36,46.1,35.9,44.9,35.9,43.6z M36.9,48.8c7.1,0.2,10.6-1.7,11.8-4.4v9.2
		c0,0.2,0,0.5,0,0.7C43.2,55.7,38.8,53.2,36.9,48.8z"/>
</g>
</svg>
