<svg xmlns="http://www.w3.org/2000/svg" xmlns:xlink="http://www.w3.org/1999/xlink" viewBox="9208 6880 290 204" width="290" height="204">
  <defs>
    <style>
      .cls-1 {
        fill: none;
      }

      .cls-2 {
        fill: #fff;
        fill-rule: evenodd;
      }

      .cls-3 {
        filter: url(#path13);
      }

      .cls-4 {
        filter: url(#path3);
      }
    </style>
    <filter id="path3" x="9228.735" y="7021.705" width="247.56" height="46.81" filterUnits="userSpaceOnUse">
      <feOffset dy="3" input="SourceAlpha"/>
      <feGaussianBlur stdDeviation="3" result="blur"/>
      <feFlood flood-opacity="0.553"/>
      <feComposite operator="in" in2="blur"/>
      <feComposite in="SourceGraphic"/>
    </filter>
    <filter id="path13" x="9269" y="6897" width="166.944" height="125" filterUnits="userSpaceOnUse">
      <feOffset dy="3" input="SourceAlpha"/>
      <feGaussianBlur stdDeviation="3" result="blur-2"/>
      <feFlood flood-opacity="0.506"/>
      <feComposite operator="in" in2="blur-2"/>
      <feComposite in="SourceGraphic"/>
    </filter>
  </defs>
  <g id="Group_54" data-name="Group 54" transform="translate(7926 5996)">
    <rect id="Rectangle_302" data-name="Rectangle 302" class="cls-1" width="290" height="204" transform="translate(1282 884)"/>
    <g id="Lexus_logo" transform="translate(1238 1060)">
      <g class="cls-4" transform="matrix(1, 0, 0, 1, -9164, -7056)">
        <path id="path3-2" data-name="path3" class="cls-2" d="M388.975,40.289H365.43c.287-2.949,2.37-5.9,6.131-5.9h27.77v-5.67H370.29c-11.572,0-16.315,8.8-16.315,17.242h32.395c1.1,0,3.7.231,3.7,2.89s-2.255,2.895-6.131,3.008H350.155V28.719h-9.946v23.14H321.23c-5.726,0-6.362-4.222-6.362-6.479V28.719H296.759l-14.752,9.836-13.3-9.836h-38.82c-11.57,0-18.513,8.042-19.5,15.042h8a18.221,18.221,0,0,0-6.7,8.09l-22.593.009c-5.729,0-6.364-4.222-6.364-6.479V28.719h-9.949V44.513c0,10.876,7.637,13.015,11.339,13.015h79.546l14.87-9.949,13.477,9.949H307.7L286.818,42.141,304,30.627V45.843c0,9.836,9.6,11.685,12.264,11.685h72.605c3.587,0,13.479-.464,13.479-8.329s-7.294-8.911-13.37-8.911M262.047,51.861H224.618c.287-2.949,3.528-5.9,7.287-5.9H254V40.291H223.8c.289-2.949,3.533-5.9,7.294-5.9h25.221v-3.3l17.473,12.961Z" transform="translate(9064.95 6998.99)"/>
      </g>
      <g class="cls-3" transform="matrix(1, 0, 0, 1, -9164, -7056)">
        <path id="path13-2" data-name="path13" class="cls-2" d="M74.466,107c24.656,0,46.52-8.613,60.079-21.869l-12.215.051C110.786,94.9,93.9,101.008,74.769,101.008c-35.692,0-63.557-21.271-63.557-47.51,0-30.264,27.861-47.506,63.557-47.506,2.266.009,4.084,1.054,2.723,3.017C70.079,17.942,48.965,46.674,45.111,52.9c-7.6,12.274-7.418,27.387,11.2,28.445h78.273c4,0,5.015-1.878,6.457-3.833a39.951,39.951,0,0,0,7.9-24.011c-.017-22.547-15.889-39.448-39.235-47.762l-3.615,5.4c19.4,7.157,32.231,21.621,32.231,42.363A36.809,36.809,0,0,1,136.8,63.984c-.862,2.928-2.561,5.407-5.774,5.407H68.551c-8,0-4.912-8.254-1.95-12.257,4.3-7.708,27.839-39.8,33.511-45.777,1.447-2.189,5.5-6.735-.085-8.472A111.039,111.039,0,0,0,74.47,0C33.341,0,.021,21.117,0,53.5-.026,86.186,33.336,107,74.466,107" transform="translate(9278 6903)"/>
      </g>
    </g>
  </g>
</svg>
